sim.vcd
$date
	Sun May 15 22:43:00 2022
$end
$version
	Icarus Verilog
$end
$timescale
	10ps
$end
$scope module riscv_tb $end
$var reg 1 ! clk $end
$var reg 1 " rstn $end
$var integer 32 # i [31:0] $end
$scope module my_cpu $end
$var wire 1 ! clk $end
$var wire 1 " rstn $end
$var wire 32 $ wb_writedata [31:0] $end
$var wire 1 % wb_reg_write $end
$var wire 32 & wb_readdata [31:0] $end
$var wire 5 ' wb_rd [4:0] $end
$var wire 32 ( wb_pc_plus_4 [31:0] $end
$var wire 1 ) wb_mem_to_reg $end
$var wire 2 * wb_jump [1:0] $end
$var wire 32 + wb_alu_result [31:0] $end
$var wire 1 , tot_stall $end
$var wire 1 - tot_flush $end
$var wire 32 . mem_writedata [31:0] $end
$var wire 1 / mem_taken $end
$var wire 1 0 mem_reg_write $end
$var wire 32 1 mem_readdata [31:0] $end
$var wire 5 2 mem_rd [4:0] $end
$var wire 32 3 mem_pc_target [31:0] $end
$var wire 32 4 mem_pc_plus_4 [31:0] $end
$var wire 1 5 mem_mem_write $end
$var wire 1 6 mem_mem_to_reg $end
$var wire 1 7 mem_mem_read $end
$var wire 2 8 mem_jump [1:0] $end
$var wire 3 9 mem_funct3 [2:0] $end
$var wire 32 : mem_alu_result [31:0] $end
$var wire 32 ; if_pc_plus_4 [31:0] $end
$var wire 32 < if_instruction [31:0] $end
$var wire 32 = id_sextimm [31:0] $end
$var wire 1 > id_reg_write $end
$var wire 32 ? id_readdata2 [31:0] $end
$var wire 32 @ id_readdata1 [31:0] $end
$var wire 32 A id_pc_plus_4 [31:0] $end
$var wire 32 B id_pc [31:0] $end
$var wire 1 C id_mem_write $end
$var wire 1 D id_mem_to_reg $end
$var wire 1 E id_mem_read $end
$var wire 2 F id_jump [1:0] $end
$var wire 32 G id_instruction [31:0] $end
$var wire 1 H id_branch $end
$var wire 1 I id_alu_src $end
$var wire 2 J id_alu_op [1:0] $end
$var wire 1 K ex_taken $end
$var wire 32 L ex_sextimm [31:0] $end
$var wire 5 M ex_rs2 [4:0] $end
$var wire 5 N ex_rs1 [4:0] $end
$var wire 1 O ex_reg_write $end
$var wire 32 P ex_readdata2_after_mux [31:0] $end
$var wire 32 Q ex_readdata2 [31:0] $end
$var wire 32 R ex_readdata1 [31:0] $end
$var wire 5 S ex_rd [4:0] $end
$var wire 32 T ex_pc_target [31:0] $end
$var wire 32 U ex_pc_plus_4 [31:0] $end
$var wire 32 V ex_pc [31:0] $end
$var wire 32 W ex_mem_writedata [31:0] $end
$var wire 1 X ex_mem_write $end
$var wire 1 Y ex_mem_to_reg $end
$var wire 1 Z ex_mem_read $end
$var wire 2 [ ex_jump [1:0] $end
$var wire 7 \ ex_funct7 [6:0] $end
$var wire 3 ] ex_funct3 [2:0] $end
$var wire 2 ^ ex_forward_b [1:0] $end
$var wire 2 _ ex_forward_a [1:0] $end
$var wire 32 ` ex_feed_alu_a [31:0] $end
$var wire 1 a ex_check $end
$var wire 1 b ex_branch $end
$var wire 1 c ex_alu_src $end
$var wire 32 d ex_alu_result [31:0] $end
$var wire 2 e ex_alu_op [1:0] $end
$var wire 4 f ex_alu_func [3:0] $end
$var wire 32 g NEXT_PC [31:0] $end
$var reg 32 h PC [31:0] $end
$var reg 32 i ex_feed_alu_b [31:0] $end
$scope module forwarding_a_mux $end
$var wire 2 j select [1:0] $end
$var wire 32 k in3 [31:0] $end
$var wire 32 l in2 [31:0] $end
$var wire 32 m in1 [31:0] $end
$var reg 32 n out [31:0] $end
$upscope $end
$scope module forwarding_b_to_ex_mem_mux $end
$var wire 2 o select [1:0] $end
$var wire 32 p in3 [31:0] $end
$var wire 32 q in2 [31:0] $end
$var wire 32 r in1 [31:0] $end
$var reg 32 s out [31:0] $end
$upscope $end
$scope module m_alu $end
$var wire 32 t in_a [31:0] $end
$var wire 32 u in_b [31:0] $end
$var wire 4 v alu_func [3:0] $end
$var reg 1 a check $end
$var reg 32 w result [31:0] $end
$upscope $end
$scope module m_alu_control $end
$var wire 7 x funct7 [6:0] $end
$var wire 3 y funct3 [2:0] $end
$var wire 4 z funct [3:0] $end
$var wire 2 { alu_op [1:0] $end
$var reg 4 | alu_func [3:0] $end
$upscope $end
$scope module m_branch_control $end
$var wire 1 a check $end
$var wire 1 b branch $end
$var reg 1 K taken $end
$upscope $end
$scope module m_branch_target_adder $end
$var wire 32 } in_b [31:0] $end
$var wire 32 ~ in_a [31:0] $end
$var reg 32 !" result [31:0] $end
$upscope $end
$scope module m_control $end
$var wire 7 "" opcode [6:0] $end
$var wire 1 > reg_write $end
$var wire 1 C mem_write $end
$var wire 1 D mem_to_reg $end
$var wire 1 E mem_read $end
$var wire 2 #" jump [1:0] $end
$var wire 1 H branch $end
$var wire 1 I alu_src $end
$var wire 2 $" alu_op [1:0] $end
$var reg 10 %" controls [9:0] $end
$upscope $end
$scope module m_data_memory $end
$var wire 1 ! clk $end
$var wire 2 &" maskmode [1:0] $end
$var wire 1 '" sext $end
$var wire 32 (" write_data [31:0] $end
$var wire 1 5 mem_write $end
$var wire 1 7 mem_read $end
$var wire 8 )" address_internal [7:0] $end
$var wire 32 *" address [31:0] $end
$var reg 32 +" read_data [31:0] $end
$upscope $end
$scope module m_exmem_reg $end
$var wire 1 ! clk $end
$var wire 32 ," ex_alu_result [31:0] $end
$var wire 32 -" ex_pc_target [31:0] $end
$var wire 1 K ex_taken $end
$var wire 32 ." ex_writedata [31:0] $end
$var wire 1 /" flush $end
$var wire 1 O ex_regwrite $end
$var wire 5 0" ex_rd [4:0] $end
$var wire 32 1" ex_pc_plus_4 [31:0] $end
$var wire 1 X ex_memwrite $end
$var wire 1 Y ex_memtoreg $end
$var wire 1 Z ex_memread $end
$var wire 2 2" ex_jump [1:0] $end
$var wire 3 3" ex_funct3 [2:0] $end
$var reg 32 4" mem_alu_result [31:0] $end
$var reg 3 5" mem_funct3 [2:0] $end
$var reg 2 6" mem_jump [1:0] $end
$var reg 1 7 mem_memread $end
$var reg 1 6 mem_memtoreg $end
$var reg 1 5 mem_memwrite $end
$var reg 32 7" mem_pc_plus_4 [31:0] $end
$var reg 32 8" mem_pc_target [31:0] $end
$var reg 5 9" mem_rd [4:0] $end
$var reg 1 0 mem_regwrite $end
$var reg 1 / mem_taken $end
$var reg 32 :" mem_writedata [31:0] $end
$upscope $end
$scope module m_forwarding $end
$var wire 5 ;" mem_rd [4:0] $end
$var wire 1 0 mem_reg_write $end
$var wire 1 % wb_reg_write $end
$var wire 5 <" wb_rd [4:0] $end
$var wire 5 =" ex_rs2 [4:0] $end
$var wire 5 >" ex_rs1 [4:0] $end
$var reg 2 ?" forward_a [1:0] $end
$var reg 2 @" forward_b [1:0] $end
$upscope $end
$scope module m_hazard $end
$var wire 1 K taken $end
$var wire 32 A" id_instruction [31:0] $end
$var wire 5 B" ex_rd [4:0] $end
$var wire 1 Z ex_mem_read $end
$var reg 1 - flush $end
$var reg 1 , stall $end
$upscope $end
$scope module m_idex_reg $end
$var wire 1 ! clk $end
$var wire 2 C" id_aluop [1:0] $end
$var wire 1 I id_alusrc $end
$var wire 1 H id_branch $end
$var wire 3 D" id_funct3 [2:0] $end
$var wire 7 E" id_funct7 [6:0] $end
$var wire 2 F" id_jump [1:0] $end
$var wire 1 E id_memread $end
$var wire 1 D id_memtoreg $end
$var wire 1 C id_memwrite $end
$var wire 5 G" id_rd [4:0] $end
$var wire 1 > id_regwrite $end
$var wire 5 H" id_rs1 [4:0] $end
$var wire 5 I" id_rs2 [4:0] $end
$var wire 32 J" id_sextimm [31:0] $end
$var wire 32 K" id_readdata2 [31:0] $end
$var wire 32 L" id_readdata1 [31:0] $end
$var wire 32 M" id_pc_plus_4 [31:0] $end
$var wire 32 N" id_PC [31:0] $end
$var reg 32 O" ex_PC [31:0] $end
$var reg 2 P" ex_aluop [1:0] $end
$var reg 1 c ex_alusrc $end
$var reg 1 b ex_branch $end
$var reg 3 Q" ex_funct3 [2:0] $end
$var reg 7 R" ex_funct7 [6:0] $end
$var reg 2 S" ex_jump [1:0] $end
$var reg 1 Z ex_memread $end
$var reg 1 Y ex_memtoreg $end
$var reg 1 X ex_memwrite $end
$var reg 32 T" ex_pc_plus_4 [31:0] $end
$var reg 5 U" ex_rd [4:0] $end
$var reg 32 V" ex_readdata1 [31:0] $end
$var reg 32 W" ex_readdata2 [31:0] $end
$var reg 1 O ex_regwrite $end
$var reg 5 X" ex_rs1 [4:0] $end
$var reg 5 Y" ex_rs2 [4:0] $end
$var reg 32 Z" ex_sextimm [31:0] $end
$upscope $end
$scope module m_ifid_reg $end
$var wire 1 ! clk $end
$var wire 32 [" if_PC [31:0] $end
$var wire 32 \" if_pc_plus_4 [31:0] $end
$var wire 32 ]" if_instruction [31:0] $end
$var reg 32 ^" id_PC [31:0] $end
$var reg 32 _" id_instruction [31:0] $end
$var reg 32 `" id_pc_plus_4 [31:0] $end
$upscope $end
$scope module m_immediate_generator $end
$var wire 32 a" instruction [31:0] $end
$var wire 7 b" opcode [6:0] $end
$var reg 32 c" sextimm [31:0] $end
$upscope $end
$scope module m_instruction_memory $end
$var wire 32 d" address [31:0] $end
$var reg 32 e" instruction [31:0] $end
$upscope $end
$scope module m_memwb_reg $end
$var wire 1 ! clk $end
$var wire 32 f" mem_alu_result [31:0] $end
$var wire 2 g" mem_jump [1:0] $end
$var wire 1 6 mem_memtoreg $end
$var wire 32 h" mem_pc_plus_4 [31:0] $end
$var wire 5 i" mem_rd [4:0] $end
$var wire 32 j" mem_readdata [31:0] $end
$var wire 1 0 mem_regwrite $end
$var reg 32 k" wb_alu_result [31:0] $end
$var reg 2 l" wb_jump [1:0] $end
$var reg 1 ) wb_memtoreg $end
$var reg 32 m" wb_pc_plus_4 [31:0] $end
$var reg 5 n" wb_rd [4:0] $end
$var reg 32 o" wb_readdata [31:0] $end
$var reg 1 % wb_regwrite $end
$upscope $end
$scope module m_pc_plus_4_adder $end
$var wire 32 p" in_a [31:0] $end
$var wire 32 q" in_b [31:0] $end
$var reg 32 r" result [31:0] $end
$upscope $end
$scope module m_register_file $end
$var wire 1 ! clk $end
$var wire 32 s" readdata1 [31:0] $end
$var wire 32 t" readdata2 [31:0] $end
$var wire 5 u" readreg1 [4:0] $end
$var wire 5 v" readreg2 [4:0] $end
$var wire 1 % wen $end
$var wire 5 w" writereg [4:0] $end
$var wire 32 x" writedata [31:0] $end
$upscope $end
$scope module mux_alu $end
$var wire 32 y" in1 [31:0] $end
$var wire 32 z" in2 [31:0] $end
$var wire 1 c select $end
$var reg 32 {" out [31:0] $end
$upscope $end
$scope module mux_wb $end
$var wire 32 |" in1 [31:0] $end
$var wire 32 }" in2 [31:0] $end
$var wire 1 ~" select $end
$var reg 32 !# out [31:0] $end
$upscope $end
$upscope $end
$upscope $end
$enddefinitions $end
#0
$dumpvars
b0 !#
x~"
bx }"
bx |"
bx {"
bx z"
bx y"
b0 x"
bx w"
bx v"
bx u"
bx t"
bx s"
bx r"
b100 q"
bx p"
bx o"
bx n"
bx m"
bx l"
bx k"
b0 j"
bx i"
bx h"
bx g"
bx f"
bx e"
bx d"
bx c"
bx b"
bx a"
bx `"
bx _"
bx ^"
bx ]"
bx \"
bx ["
bx Z"
bx Y"
bx X"
bx W"
bx V"
bx U"
bx T"
bx S"
bx R"
bx Q"
bx P"
bx O"
bx N"
bx M"
bx L"
bx K"
bx J"
bx I"
bx H"
bx G"
bx F"
bx E"
bx D"
bx C"
bx B"
bx A"
bx @"
bx ?"
bx >"
bx ="
bx <"
bx ;"
bx :"
bx 9"
bx 8"
bx 7"
bx 6"
bx 5"
bx 4"
bx 3"
bx 2"
bx 1"
bx 0"
z/"
bx ."
bx -"
bx ,"
b0 +"
bx *"
bx )"
bx ("
x'"
bx &"
bx %"
bx $"
bx #"
bx ""
bx !"
bx ~
bx }
bx |
bx {
bx z
bx y
bx x
bx w
bx v
bx u
bx t
bx s
bx r
b0 q
bx p
bx o
bx n
bx m
b0 l
bx k
bx j
bx i
bx h
bx g
bx f
bx e
bx d
xc
xb
xa
bx `
bx _
bx ^
bx ]
bx \
bx [
xZ
xY
xX
bx W
bx V
bx U
bx T
bx S
bx R
bx Q
bx P
xO
bx N
bx M
bx L
xK
bx J
xI
xH
bx G
bx F
xE
xD
xC
bx B
bx A
bx @
bx ?
x>
bx =
bx <
bx ;
bx :
bx 9
bx 8
x7
x6
x5
bx 4
bx 3
bx 2
b0 1
x0
x/
bx .
x-
x,
bx +
bx *
x)
bx (
bx '
bx &
x%
b0 $
bx #
0"
0!
$end
#500
b0 <
b0 ]"
b0 e"
b100 ;
b100 \"
b100 r"
b0 &
b0 o"
b0 h
b0 ["
b0 d"
b0 p"
1!
#1000
0!
#1500
b0 F
b0 #"
b0 F"
0H
0E
0D
b0 J
b0 $"
b0 C"
0C
0I
0>
b0 %"
b0 b"
b0 G"
b0 I"
b0 H"
b0 D"
b0 E"
b0 ?
b0 K"
b0 t"
b0 v"
b0 @
b0 L"
b0 s"
b0 u"
b0 ""
0,
b0 =
b0 J"
b0 c"
b0 G
b0 A"
b0 _"
b0 a"
b100 A
b100 M"
b100 `"
b0 B
b0 N"
b0 ^"
1!
#2000
0!
#2500
b100 g
b0 i
b0 u
b0 W
b0 s
b0 ."
b0 `
b0 n
b0 t
0a
b0 d
b0 w
b0 ,"
b0 ^
b0 o
b0 @"
b0 _
b0 j
b0 ?"
0-
b0 P
b0 {"
b0 f
b0 v
b0 |
0K
b0 T
b0 !"
b0 -"
b0 S
b0 0"
b0 B"
b0 U"
b0 M
b0 ="
b0 Y"
b0 N
b0 >"
b0 X"
b0 Q
b0 r
b0 W"
b0 y"
b0 R
b0 m
b0 V"
b0 z
b0 ]
b0 y
b0 3"
b0 Q"
b0 \
b0 x
b0 R"
b0 L
b0 }
b0 Z"
b0 z"
0O
0Y
0X
0Z
b0 [
b0 2"
b0 S"
0c
b0 e
b0 {
b0 P"
0b
b100 U
b100 1"
b100 T"
b0 V
b0 ~
b0 O"
1!
#3000
0!
#3500
0'"
b0 &"
b0 )"
b0 2
b0 9"
b0 ;"
b0 i"
b0 9
b0 5"
b0 .
b0 ("
b0 :"
b0 :
b0 k
b0 p
b0 *"
b0 4"
b0 f"
00
06
b0 8
b0 6"
b0 g"
05
07
0/
b0 3
b0 8"
b100 4
b100 7"
b100 h"
1!
#4000
0!
#4500
b0 |"
0~"
b0 '
b0 <"
b0 n"
b0 w"
b0 +
b0 k"
0%
0)
b0 *
b0 l"
b100 (
b100 m"
b100 }"
1!
#5000
0!
#5500
1!
#6000
0!
1"
#6500
b1000001000100000110011 <
b1000001000100000110011 ]"
b1000001000100000110011 e"
b1000 ;
b1000 \"
b1000 r"
b100 h
b100 ["
b100 d"
b100 p"
1!
#7000
0!
#7500
b10 J
b10 $"
b10 C"
1>
b10001 %"
b1000 g
b110011 b"
b10000 G"
b10 I"
b1 H"
b10 ?
b10 K"
b10 t"
b10 v"
b1 @
b1 L"
b1 s"
b1 u"
b110011 ""
b1000001000100000110011 G
b1000001000100000110011 A"
b1000001000100000110011 _"
b1000001000100000110011 a"
b1000 A
b1000 M"
b1000 `"
b100 B
b100 N"
b100 ^"
1!
#8000
0!
#8500
b11 d
b11 w
b11 ,"
b10 i
b10 u
b10 W
b10 s
b10 ."
b10 P
b10 {"
b1 `
b1 n
b1 t
b100 T
b100 !"
b100 -"
b110000000100010110011 <
b110000000100010110011 ]"
b110000000100010110011 e"
b1100 ;
b1100 \"
b1100 r"
b10000 S
b10000 0"
b10000 B"
b10000 U"
b10 M
b10 ="
b10 Y"
b1 N
b1 >"
b1 X"
b10 Q
b10 r
b10 W"
b10 y"
b1 R
b1 m
b1 V"
1O
b10 e
b10 {
b10 P"
b1000 U
b1000 1"
b1000 T"
b100 V
b100 ~
b100 O"
b1000 h
b1000 ["
b1000 d"
b1000 p"
1!
#9000
0!
#9500
b1100 g
b10001 G"
b1 I"
b10000 H"
b1 ?
b1 K"
b1 t"
b1 v"
b0 @
b0 L"
b0 s"
b10000 u"
b10000 2
b10000 9"
b10000 ;"
b10000 i"
b10 .
b10 ("
b10 :"
b11 :
b11 k
b11 p
b11 *"
b11 4"
b11 f"
10
b100 3
b100 8"
b1000 4
b1000 7"
b1000 h"
b110000000100010110011 G
b110000000100010110011 A"
b110000000100010110011 _"
b110000000100010110011 a"
b1100 A
b1100 M"
b1100 `"
b1000 B
b1000 N"
b1000 ^"
1!
#10000
0!
#10500
b100 d
b100 w
b100 ,"
b11 $
b11 l
b11 q
b11 x"
b11 !#
b1 i
b1 u
b1 W
b1 s
b1 ."
b1 P
b1 {"
b11 `
b11 n
b11 t
b1000 T
b1000 !"
b1000 -"
b11 |"
b10 _
b10 j
b10 ?"
b1100010000100000110011 <
b1100010000100000110011 ]"
b1100010000100000110011 e"
b10000 ;
b10000 \"
b10000 r"
b10001 S
b10001 0"
b10001 B"
b10001 U"
b1 M
b1 ="
b1 Y"
b10000 N
b10000 >"
b10000 X"
b1 Q
b1 r
b1 W"
b1 y"
b0 R
b0 m
b0 V"
b1100 U
b1100 1"
b1100 T"
b1000 V
b1000 ~
b1000 O"
b10000 '
b10000 <"
b10000 n"
b10000 w"
b11 +
b11 k"
1%
b1000 (
b1000 m"
b1000 }"
b1100 h
b1100 ["
b1100 d"
b1100 p"
1!
#11000
b11 @
b11 L"
b11 s"
0!
#11500
b100 d
b100 w
b100 ,"
b10000 g
b1 _
b1 j
b1 ?"
b1 )"
b11 `
b11 n
b11 t
b10000 G"
b11 I"
b10 H"
b11 ?
b11 K"
b11 t"
b11 v"
b10 @
b10 L"
b10 s"
b10 u"
b10001 2
b10001 9"
b10001 ;"
b10001 i"
b1 .
b1 ("
b1 :"
b100 :
b100 k
b100 p
b100 *"
b100 4"
b100 f"
b1000 3
b1000 8"
b1100 4
b1100 7"
b1100 h"
b11 R
b11 m
b11 V"
b1100010000100000110011 G
b1100010000100000110011 A"
b1100010000100000110011 _"
b1100010000100000110011 a"
b10000 A
b10000 M"
b10000 `"
b1100 B
b1100 N"
b1100 ^"
1!
#12000
0!
#12500
b101 d
b101 w
b101 ,"
b100 $
b100 l
b100 q
b100 x"
b100 !#
b11 i
b11 u
b11 W
b11 s
b11 ."
b11 P
b11 {"
b10 `
b10 n
b10 t
b1100 T
b1100 !"
b1100 -"
b0 _
b0 j
b0 ?"
b100 |"
b10100100000100000110011 <
b10100100000100000110011 ]"
b10100100000100000110011 e"
b10100 ;
b10100 \"
b10100 r"
b10000 S
b10000 0"
b10000 B"
b10000 U"
b11 M
b11 ="
b11 Y"
b10 N
b10 >"
b10 X"
b11 Q
b11 r
b11 W"
b11 y"
b10 R
b10 m
b10 V"
b10000 U
b10000 1"
b10000 T"
b1100 V
b1100 ~
b1100 O"
b10001 '
b10001 <"
b10001 n"
b10001 w"
b100 +
b100 k"
b1100 (
b1100 m"
b1100 }"
b10000 h
b10000 ["
b10000 d"
b10000 p"
1!
#13000
0!
#13500
b10100 g
b101 I"
b100 H"
b101 ?
b101 K"
b101 t"
b101 v"
b100 @
b100 L"
b100 s"
b100 u"
b10000 2
b10000 9"
b10000 ;"
b10000 i"
b11 .
b11 ("
b11 :"
b101 :
b101 k
b101 p
b101 *"
b101 4"
b101 f"
b1100 3
b1100 8"
b10000 4
b10000 7"
b10000 h"
b10100100000100000110011 G
b10100100000100000110011 A"
b10100100000100000110011 _"
b10100100000100000110011 a"
b10100 A
b10100 M"
b10100 `"
b10000 B
b10000 N"
b10000 ^"
1!
#14000
0!
#14500
b1001 d
b1001 w
b1001 ,"
b101 $
b101 l
b101 q
b101 x"
b101 !#
b101 i
b101 u
b101 W
b101 s
b101 ."
b101 P
b101 {"
b100 `
b100 n
b100 t
b10000 T
b10000 !"
b10000 -"
b101 |"
b111100100010000000100011 <
b111100100010000000100011 ]"
b111100100010000000100011 e"
b11000 ;
b11000 \"
b11000 r"
b101 M
b101 ="
b101 Y"
b100 N
b100 >"
b100 X"
b101 Q
b101 r
b101 W"
b101 y"
b100 R
b100 m
b100 V"
b10100 U
b10100 1"
b10100 T"
b10000 V
b10000 ~
b10000 O"
b10000 '
b10000 <"
b10000 n"
b10000 w"
b101 +
b101 k"
b10000 (
b10000 m"
b10000 }"
b10100 h
b10100 ["
b10100 d"
b10100 p"
1!
#15000
0!
#15500
b0 J
b0 $"
b0 C"
1C
1I
0>
b110 %"
b11000 g
b10 )"
b100011 b"
b0 G"
b1111 I"
b10 D"
b1111 ?
b1111 K"
b1111 t"
b1111 v"
b100011 ""
b101 .
b101 ("
b101 :"
b1001 :
b1001 k
b1001 p
b1001 *"
b1001 4"
b1001 f"
b10000 3
b10000 8"
b10100 4
b10100 7"
b10100 h"
b111100100010000000100011 G
b111100100010000000100011 A"
b111100100010000000100011 _"
b111100100010000000100011 a"
b11000 A
b11000 M"
b11000 `"
b10100 B
b10100 N"
b10100 ^"
1!
#16000
0!
#16500
b100 d
b100 w
b100 ,"
b1001 $
b1001 l
b1001 q
b1001 x"
b1001 !#
b1111 W
b1111 s
b1111 ."
b0 P
b0 {"
b0 i
b0 u
b10100 T
b10100 !"
b10100 -"
b1001 |"
b100001000010000000100011 <
b100001000010000000100011 ]"
b100001000010000000100011 e"
b11100 ;
b11100 \"
b11100 r"
b0 S
b0 0"
b0 B"
b0 U"
b1111 M
b1111 ="
b1111 Y"
b1111 Q
b1111 r
b1111 W"
b1111 y"
b10 z
b10 ]
b10 y
b10 3"
b10 Q"
0O
1X
1c
b0 e
b0 {
b0 P"
b11000 U
b11000 1"
b11000 T"
b10100 V
b10100 ~
b10100 O"
b1001 +
b1001 k"
b10100 (
b10100 m"
b10100 }"
b11000 h
b11000 ["
b11000 d"
b11000 p"
1!
#17000
0!
#17500
b11100 g
b10 &"
b1 )"
b1000 I"
b1000 H"
b1000 ?
b1000 K"
b1000 t"
b1000 v"
b1000 @
b1000 L"
b1000 s"
b1000 u"
b0 2
b0 9"
b0 ;"
b0 i"
b10 9
b10 5"
b1111 .
b1111 ("
b1111 :"
b100 :
b100 k
b100 p
b100 *"
b100 4"
b100 f"
00
15
b10100 3
b10100 8"
b11000 4
b11000 7"
b11000 h"
b100001000010000000100011 G
b100001000010000000100011 A"
b100001000010000000100011 _"
b100001000010000000100011 a"
b11100 A
b11100 M"
b11100 `"
b11000 B
b11000 N"
b11000 ^"
1!
#18000
0!
#18500
b1000 d
b1000 w
b1000 ,"
b100 $
b100 l
b100 q
b100 x"
b100 !#
b1000 W
b1000 s
b1000 ."
b1000 `
b1000 n
b1000 t
b11000 T
b11000 !"
b11000 -"
b100 |"
b100010100100000011 <
b100010100100000011 ]"
b100010100100000011 e"
b100000 ;
b100000 \"
b100000 r"
b1000 M
b1000 ="
b1000 Y"
b1000 N
b1000 >"
b1000 X"
b1000 Q
b1000 r
b1000 W"
b1000 y"
b1000 R
b1000 m
b1000 V"
b11100 U
b11100 1"
b11100 T"
b11000 V
b11000 ~
b11000 O"
b0 '
b0 <"
b0 n"
b0 w"
b100 +
b100 k"
0%
b11000 (
b11000 m"
b11000 }"
b11100 h
b11100 ["
b11100 d"
b11100 p"
1!
#19000
0!
#19500
1E
1D
0C
1>
b1100011 %"
b100000 g
b10 )"
b11 b"
b10010 G"
b0 I"
b100 H"
b0 ?
b0 K"
b0 t"
b0 v"
b100 @
b100 L"
b100 s"
b100 u"
b11 ""
b0 =
b0 J"
b0 c"
b1000 .
b1000 ("
b1000 :"
b1000 :
b1000 k
b1000 p
b1000 *"
b1000 4"
b1000 f"
b11000 3
b11000 8"
b11100 4
b11100 7"
b11100 h"
b100010100100000011 G
b100010100100000011 A"
b100010100100000011 _"
b100010100100000011 a"
b100000 A
b100000 M"
b100000 `"
b11100 B
b11100 N"
b11100 ^"
1!
#20000
0!
#20500
b100 d
b100 w
b100 ,"
b1000 $
b1000 l
b1000 q
b1000 x"
b1000 !#
b0 W
b0 s
b0 ."
b100 `
b100 n
b100 t
b11100 T
b11100 !"
b11100 -"
b1000 |"
b110010000100110110011 <
b110010000100110110011 ]"
b110010000100110110011 e"
b100100 ;
b100100 \"
b100100 r"
b10010 S
b10010 0"
b10010 B"
b10010 U"
b0 M
b0 ="
b0 Y"
b100 N
b100 >"
b100 X"
b0 Q
b0 r
b0 W"
b0 y"
b100 R
b100 m
b100 V"
1O
1Y
0X
1Z
b100000 U
b100000 1"
b100000 T"
b11100 V
b11100 ~
b11100 O"
b1000 +
b1000 k"
b11100 (
b11100 m"
b11100 }"
b100000 h
b100000 ["
b100000 d"
b100000 p"
1!
#21000
0!
#21500
0E
0D
b10 J
b10 $"
b10 C"
0I
b10001 %"
b1 )"
b1111 1
b1111 +"
b1111 j"
b110011 b"
b10011 G"
b1 I"
b10010 H"
b0 D"
b1 ?
b1 K"
b1 t"
b1 v"
b0 @
b0 L"
b0 s"
b10010 u"
b110011 ""
1,
b0 =
b0 J"
b0 c"
b10010 2
b10010 9"
b10010 ;"
b10010 i"
b0 .
b0 ("
b0 :"
b100 :
b100 k
b100 p
b100 *"
b100 4"
b100 f"
10
16
05
17
b11100 3
b11100 8"
b100000 4
b100000 7"
b100000 h"
b110010000100110110011 G
b110010000100110110011 A"
b110010000100110110011 _"
b110010000100110110011 a"
b100100 A
b100100 M"
b100100 `"
b100000 B
b100000 N"
b100000 ^"
1!
#22000
0!
#22500
b100100 g
b101 d
b101 w
b101 ,"
b1111 $
b1111 l
b1111 q
b1111 x"
b1111 !#
b1 W
b1 s
b1 ."
0,
b1 P
b1 {"
b1 i
b1 u
b100000 T
b100000 !"
b100000 -"
b1111 |"
b10 _
b10 j
b10 ?"
b10011 S
b10011 0"
b10011 B"
b10011 U"
b1 M
b1 ="
b1 Y"
b10010 N
b10010 >"
b10010 X"
b1 Q
b1 r
b1 W"
b1 y"
b0 R
b0 m
b0 V"
b0 z
b0 ]
b0 y
b0 3"
b0 Q"
0Y
0Z
0c
b10 e
b10 {
b10 P"
b100100 U
b100100 1"
b100100 T"
b100000 V
b100000 ~
b100000 O"
b10010 '
b10010 <"
b10010 n"
b10010 w"
b100 +
b100 k"
b1111 &
b1111 o"
1%
1)
b100000 (
b100000 m"
b100000 }"
1!
#23000
b1111 @
b1111 L"
b1111 s"
0!
#23500
b10000 d
b10000 w
b10000 ,"
b110010000101000110011 <
b110010000101000110011 ]"
b110010000101000110011 e"
b101000 ;
b101000 \"
b101000 r"
b1 _
b1 j
b1 ?"
b0 &"
b0 1
b0 +"
b0 j"
b1111 `
b1111 n
b1111 t
b100100 h
b100100 ["
b100100 d"
b100100 p"
b10011 2
b10011 9"
b10011 ;"
b10011 i"
b0 9
b0 5"
b1 .
b1 ("
b1 :"
b101 :
b101 k
b101 p
b101 *"
b101 4"
b101 f"
06
07
b100000 3
b100000 8"
b100100 4
b100100 7"
b100100 h"
b1111 R
b1111 m
b1111 V"
1!
#24000
0!
#24500
b101000 g
b101 $
b101 l
b101 q
b101 x"
b101 !#
b10100 G"
b100 )"
b0 _
b0 j
b0 ?"
b101 |"
b110010000101000110011 G
b110010000101000110011 A"
b110010000101000110011 _"
b110010000101000110011 a"
b101000 A
b101000 M"
b101000 `"
b100100 B
b100100 N"
b100100 ^"
b10000 :
b10000 k
b10000 p
b10000 *"
b10000 4"
b10000 f"
b10011 '
b10011 <"
b10011 n"
b10011 w"
b101 +
b101 k"
b0 &
b0 o"
0)
b100100 (
b100100 m"
b100100 }"
1!
#25000
0!
#25500
b10000 $
b10000 l
b10000 q
b10000 x"
b10000 !#
b100010101010000011 <
b100010101010000011 ]"
b100010101010000011 e"
b101100 ;
b101100 \"
b101100 r"
b10000 |"
b100100 T
b100100 !"
b100100 -"
b101000 h
b101000 ["
b101000 d"
b101000 p"
b10000 +
b10000 k"
b10100 S
b10100 0"
b10100 B"
b10100 U"
b101000 U
b101000 1"
b101000 T"
b100100 V
b100100 ~
b100100 O"
1!
#26000
0!
#26500
1E
1D
b0 J
b0 $"
b0 C"
1I
b1100011 %"
b101100 g
b11 b"
b10101 G"
b0 I"
b100 H"
b10 D"
b0 ?
b0 K"
b0 t"
b0 v"
b100 @
b100 L"
b100 s"
b100 u"
b11 ""
b100010101010000011 G
b100010101010000011 A"
b100010101010000011 _"
b100010101010000011 a"
b101100 A
b101100 M"
b101100 `"
b101000 B
b101000 N"
b101000 ^"
b10100 2
b10100 9"
b10100 ;"
b10100 i"
b100100 3
b100100 8"
b101000 4
b101000 7"
b101000 h"
1!
#27000
0!
#27500
b100 d
b100 w
b100 ,"
b1000001000101100110011 <
b1000001000101100110011 ]"
b1000001000101100110011 e"
b110000 ;
b110000 \"
b110000 r"
b0 W
b0 s
b0 ."
b100 `
b100 n
b100 t
b0 P
b0 {"
b0 i
b0 u
b101000 T
b101000 !"
b101000 -"
b101100 h
b101100 ["
b101100 d"
b101100 p"
b10100 '
b10100 <"
b10100 n"
b10100 w"
b101000 (
b101000 m"
b101000 }"
b10101 S
b10101 0"
b10101 B"
b10101 U"
b0 M
b0 ="
b0 Y"
b100 N
b100 >"
b100 X"
b0 Q
b0 r
b0 W"
b0 y"
b100 R
b100 m
b100 V"
b10 z
b10 ]
b10 y
b10 3"
b10 Q"
1Y
1Z
1c
b0 e
b0 {
b0 P"
b101100 U
b101100 1"
b101100 T"
b101000 V
b101000 ~
b101000 O"
1!
#28000
0!
